{
  "name": "com-wui-framework-chromiumre",
  "description": "Stand alone runtime environment for WUI Framework's applications.",
  "version": "2019.0.0",
  "private": false,
  "homepage": "www.nxp.com",
  "author": {
    "name": "Michal Kelnar",
    "email": "michal.kelnar@nxp.com"
  },
  "contributors": [
    {
      "name": "Jakub Cieslar",
      "email": "jakub.cieslar@nxp.com"
    },
    {
      "name": "Karel Burda",
      "email": "karel.burda@nxp.com"
    }
  ],
  "license": "Copyright (c) 2016 Freescale Semiconductor, Inc., Copyright (c) 2017-2019 NXP. The BSD-3-Clause license for this file can be found in the LICENSE.txt file included with this distribution or at https://spdx.org/licenses/BSD-3-Clause.html#licenseText.",
  "repository": {
    "type": "git",
    "url": "https://bitbucket.org/wuiframework/com-wui-framework-chromiumre.git"
  },
  "dependencies": {
    "com-wui-framework-xcppcommons": "git+https://bitbucket.org/wuiframework/com-wui-framework-xcppcommons.git#2019.0.0",
    "cef": {
      "version": "3.3396.1782",
      "location": {
        "type": "file",
        "path": {
          "win": "http://opensource.spotify.com/cefbuilds/cef_binary_3.3396.1782.gc368dbf_windows64.tar.bz2",
          "linux": "http://opensource.spotify.com/cefbuilds/cef_binary_3.3396.1782.gc368dbf_linux64.tar.bz2",
          "mac": "http://opensource.spotify.com/cefbuilds/cef_binary_3.3396.1782.gc368dbf_macosx64.tar.bz2"
        }
      },
      "configure-script": {
        "name": "cef_configure.cmake"
      }
    }
  },
  "loaderClass": "Com.Wui.Framework.ChromiumRE.Loader",
  "target": {
    "name": "WuiChromiumRE",
    "companyName": "NXP",
    "copyright": "Copyright (c) 2016 Freescale Semiconductor, Inc., Copyright (c) 2017-2019 NXP",
    "icon": "resource/graphics/icon.ico",
    "resources": [
      {
        "input": "resource/graphics/icon.ico",
        "embed": true,
        "platforms": [
          "win",
          "linux"
        ]
      },
      {
        "input": "dependencies/cef/Resources/locales/en-us.pak",
        "output": "locales/*",
        "platforms": [
          "win",
          "linux"
        ]
      },
      {
        "input": "dependencies/cef/Resources/cef.pak",
        "output": "/*",
        "platforms": [
          "win",
          "linux"
        ]
      },
      {
        "input": "dependencies/cef/Resources/cef_extensions.pak",
        "output": "/*",
        "platforms": [
          "win",
          "linux"
        ]
      },
      {
        "input": "dependencies/cef/Resources/icudtl.dat",
        "output": "/*",
        "platforms": [
          "win",
          "linux"
        ]
      },
      {
        "input": "dependencies/cef/Resources/cef_100_percent.pak",
        "output": "/*",
        "platforms": [
          "win",
          "linux"
        ]
      },
      {
        "input": "dependencies/cef/Resources/cef_200_percent.pak",
        "output": "/*",
        "platforms": [
          "win",
          "linux"
        ]
      },
      {
        "input": "dependencies/cef/Resources/devtools_resources.pak",
        "output": "/*",
        "platforms": [
          "win",
          "linux"
        ]
      },
      {
        "input": "resource/configs/default.config.jsonp",
        "embed": true
      }
    ]
  },
  "releases": {
    "Win": {
      "platforms": "app-win-gcc"
    },
    "Linux": {
      "skipped": true,
      "platforms": "app-linux-gcc"
    },
    "Mac": {
      "skipped": true,
      "platforms": "app-mac-clang"
    }
  }
}
